\relax 
\providecommand\hyper@newdestlabel[2]{}
\providecommand\HyperFirstAtBeginDocument{\AtBeginDocument}
\HyperFirstAtBeginDocument{\ifx\hyper@anchor\@undefined
\global\let\oldcontentsline\contentsline
\gdef\contentsline#1#2#3#4{\oldcontentsline{#1}{#2}{#3}}
\global\let\oldnewlabel\newlabel
\gdef\newlabel#1#2{\newlabelxx{#1}#2}
\gdef\newlabelxx#1#2#3#4#5#6{\oldnewlabel{#1}{{#2}{#3}}}
\AtEndDocument{\ifx\hyper@anchor\@undefined
\let\contentsline\oldcontentsline
\let\newlabel\oldnewlabel
\fi}
\fi}
\global\let\hyper@last\relax 
\gdef\HyperFirstAtBeginDocument#1{#1}
\providecommand\HyField@AuxAddToFields[1]{}
\providecommand\HyField@AuxAddToCoFields[2]{}
\select@language{english}
\@writefile{toc}{\select@language{english}}
\@writefile{lof}{\select@language{english}}
\@writefile{lot}{\select@language{english}}
\citation{fish:11icb}
\citation{howle:09ww}
\citation{stanway:08mit}
\citation{swatton:11pf}
\citation{murray:07joa}
\citation{hansen:12ua}
\citation{hansen:12ua}
\citation{fish:06icb}
\citation{fish:06icb}
\citation{Lin:91aiaa}
\citation{dewar:05pat}
\@writefile{toc}{\contentsline {section}{\numberline {1}Introduction}{2}{section.1}}
\newlabel{Introduction}{{1}{2}{Introduction}{section.1}{}}
\newlabel{f:comparisona}{{1(a)}{2}{Subfigure 1(a)}{subfigure.1.1}{}}
\newlabel{sub@f:comparisona}{{(a)}{2}{Subfigure 1(a)\relax }{subfigure.1.1}{}}
\newlabel{f:comparisonb}{{1(b)}{2}{Subfigure 1(b)}{subfigure.1.2}{}}
\newlabel{sub@f:comparisonb}{{(b)}{2}{Subfigure 1(b)\relax }{subfigure.1.2}{}}
\@writefile{lof}{\contentsline {figure}{\numberline {1}{\ignorespaces Comparison of vortex generators and leading edge protrusions.}}{2}{figure.1}}
\newlabel{f:comparison}{{1}{2}{Comparison of vortex generators and leading edge protrusions}{figure.1}{}}
\@writefile{lof}{\contentsline {subfigure}{\numberline{(a)}{\ignorespaces {Vortex Generators creating chordwise vorticies in the y-z plane. Figure from the dissertation Effect of Leading Edge Tubercles on Airfoil Performance\cite {hansen:12ua}.}}}{2}{figure.1}}
\@writefile{lof}{\contentsline {subfigure}{\numberline{(b)}{\ignorespaces {Leading Edge Protrusions creating chordwise vorticies in the x-z plane. Figure from the Annual Review of Fluid Mechanics journal\cite {fish:06icb}.}}}{2}{figure.1}}
\@writefile{toc}{\contentsline {section}{\numberline {2}Hypothesized Effects on Propellers}{2}{section.2}}
\newlabel{Hypothesized Full Range of Affects on Propellers}{{2}{2}{Hypothesized Effects on Propellers}{section.2}{}}
\citation{custodio:07,akram,feng,sousa}
\citation{glauert:1926}
\citation{fish:11icb}
\citation{fish:11icb}
\citation{fish:11icb}
\citation{hansen:12ua}
\newlabel{e:advance_ratio}{{1}{3}{Hypothesized Effects on Propellers}{equation.2.1}{}}
\newlabel{e:corrected_velocity}{{2}{3}{Hypothesized Effects on Propellers}{equation.2.2}{}}
\newlabel{e:glauert}{{3}{3}{Hypothesized Effects on Propellers}{equation.2.3}{}}
\@writefile{lof}{\contentsline {figure}{\numberline {2}{\ignorespaces Lift to drag ratio versus angle of attack for modified and unmodified NACA 0021 airfoil. Closed circles represent unmodified airfoil data, open circles represent modified airfoil data. Re= 500,000. Figure from The Tubercles on Humpback Whales’ Flippers: Application of Bio-Inspired Technology \cite  {fish:11icb}.}}{3}{figure.2}}
\newlabel{f:fish_lift_to_drag}{{2}{3}{Lift to drag ratio versus angle of attack for modified and unmodified NACA 0021 airfoil. Closed circles represent unmodified airfoil data, open circles represent modified airfoil data. Re= 500,000. Figure from The Tubercles on Humpback Whales’ Flippers: Application of Bio-Inspired Technology \cite {fish:11icb}}{figure.2}{}}
\newlabel{1@xvr}{{}{3}{Hypothesized Effects on Propellers}{figure.2}{}}
\newlabel{1@vr}{{}{3}{Hypothesized Effects on Propellers}{figure.2}{}}
\@writefile{toc}{\contentsline {section}{\numberline {3}Design of Experiments}{4}{section.3}}
\newlabel{Design of Experiment}{{3}{4}{Design of Experiments}{section.3}{}}
\@writefile{toc}{\contentsline {subsection}{\numberline {3.1}Propeller Type Selection}{4}{subsection.3.1}}
\newlabel{e:Reynolds}{{4}{4}{Propeller Type Selection}{equation.3.4}{}}
\newlabel{e:Vtotal}{{5}{4}{Propeller Type Selection}{equation.3.5}{}}
\@writefile{toc}{\contentsline {subsection}{\numberline {3.2}Propeller Aerodynamic Design}{4}{subsection.3.2}}
\newlabel{Propeller Aerodynamic Design}{{3.2}{4}{Propeller Aerodynamic Design}{subsection.3.2}{}}
\@writefile{lof}{\contentsline {figure}{\numberline {3}{\ignorespaces Classic wood propeller pitch, chord length, and thickness distribution.}}{4}{figure.3}}
\newlabel{f:chord_twist_distribution}{{3}{4}{Classic wood propeller pitch, chord length, and thickness distribution}{figure.3}{}}
\@writefile{lof}{\contentsline {figure}{\numberline {4}{\ignorespaces Control propeller with airfoil sections represented.}}{4}{figure.4}}
\newlabel{f:control_propeller}{{4}{4}{Control propeller with airfoil sections represented}{figure.4}{}}
\newlabel{2@xvr}{{}{4}{Propeller Aerodynamic Design}{figure.4}{}}
\newlabel{2@vr}{{}{4}{Propeller Aerodynamic Design}{figure.4}{}}
\newlabel{3@xvr}{{}{4}{Propeller Aerodynamic Design}{figure.4}{}}
\newlabel{3@vr}{{}{4}{Propeller Aerodynamic Design}{figure.4}{}}
\@writefile{toc}{\contentsline {subsection}{\numberline {3.3}Leading Edge Protrusion Size and Spacing}{5}{subsection.3.3}}
\newlabel{Leading Edge Protrusion Size and Spacing}{{3.3}{5}{Leading Edge Protrusion Size and Spacing}{subsection.3.3}{}}
\@writefile{lof}{\contentsline {figure}{\numberline {5}{\ignorespaces Graphical representation of protrusion sizes and spacings. Dimensions are given as percentages of the effective propeller radius or distance from root to tip.}}{5}{figure.5}}
\newlabel{f:sizes_and_spacings}{{5}{5}{Graphical representation of protrusion sizes and spacings. Dimensions are given as percentages of the effective propeller radius or distance from root to tip}{figure.5}{}}
\newlabel{4@xvr}{{}{5}{Leading Edge Protrusion Size and Spacing}{figure.5}{}}
\newlabel{4@vr}{{}{5}{Leading Edge Protrusion Size and Spacing}{figure.5}{}}
\@writefile{toc}{\contentsline {section}{\numberline {4}Testing}{5}{section.4}}
\newlabel{Propeller Testing}{{4}{5}{Testing}{section.4}{}}
\@writefile{toc}{\contentsline {subsection}{\numberline {4.1}Required Data}{5}{subsection.4.1}}
\newlabel{Required Data Plots}{{4.1}{5}{Required Data}{subsection.4.1}{}}
\newlabel{e:efficiency}{{6}{5}{Required Data}{equation.4.6}{}}
\newlabel{e:coefficient_of_thrust}{{7}{6}{Required Data}{equation.4.7}{}}
\newlabel{e:corrected_thrust}{{8}{6}{Required Data}{equation.4.8}{}}
\@writefile{toc}{\contentsline {subsection}{\numberline {4.2}Instrumentation}{6}{subsection.4.2}}
\newlabel{Instrumentation}{{4.2}{6}{Instrumentation}{subsection.4.2}{}}
\newlabel{5@xvr}{{}{6}{Instrumentation}{subsection.4.2}{}}
\newlabel{5@vr}{{}{6}{Instrumentation}{subsection.4.2}{}}
\newlabel{f:calibrationa}{{6(a)}{6}{Subfigure 6(a)}{subfigure.6.1}{}}
\newlabel{sub@f:calibrationa}{{(a)}{6}{Subfigure 6(a)\relax }{subfigure.6.1}{}}
\newlabel{f:calibrationb}{{6(b)}{6}{Subfigure 6(b)}{subfigure.6.2}{}}
\newlabel{sub@f:calibrationb}{{(b)}{6}{Subfigure 6(b)\relax }{subfigure.6.2}{}}
\newlabel{f:calibrationc}{{6(c)}{6}{Subfigure 6(c)}{subfigure.6.3}{}}
\newlabel{sub@f:calibrationc}{{(c)}{6}{Subfigure 6(c)\relax }{subfigure.6.3}{}}
\newlabel{f:calibrationd}{{6(d)}{6}{Subfigure 6(d)}{subfigure.6.4}{}}
\newlabel{sub@f:calibrationd}{{(d)}{6}{Subfigure 6(d)\relax }{subfigure.6.4}{}}
\@writefile{lof}{\contentsline {figure}{\numberline {6}{\ignorespaces Calibration curves for current, strain, airspeed, and test stand drag.}}{6}{figure.6}}
\newlabel{f:calibration}{{6}{6}{Calibration curves for current, strain, airspeed, and test stand drag}{figure.6}{}}
\@writefile{lof}{\contentsline {subfigure}{\numberline{(a)}{\ignorespaces {Linear least squares regression of current calibration data.}}}{6}{figure.6}}
\@writefile{lof}{\contentsline {subfigure}{\numberline{(b)}{\ignorespaces {Linear least squares regression of strain calibration data. }}}{6}{figure.6}}
\@writefile{lof}{\contentsline {subfigure}{\numberline{(c)}{\ignorespaces {Second order least squares regression of airspeed calibration data. }}}{6}{figure.6}}
\@writefile{lof}{\contentsline {subfigure}{\numberline{(d)}{\ignorespaces {Second order least squares regression of test stand drag data. }}}{6}{figure.6}}
\citation{Brezina:13aiaa}
\citation{phelps}
\citation{Brezina:13aiaa}
\citation{Brezina:13aiaa}
\citation{Brezina:13aiaa}
\citation{Brezina:13aiaa}
\citation{phelps}
\@writefile{lof}{\contentsline {figure}{\numberline {7}{\ignorespaces Test stand while in operation}}{7}{figure.7}}
\newlabel{f:test_stand}{{7}{7}{Test stand while in operation}{figure.7}{}}
\newlabel{6@xvr}{{}{7}{Instrumentation}{figure.7}{}}
\newlabel{6@vr}{{}{7}{Instrumentation}{figure.7}{}}
\@writefile{toc}{\contentsline {subsection}{\numberline {4.3}Validation Test}{7}{subsection.4.3}}
\newlabel{Validation Test}{{4.3}{7}{Validation Test}{subsection.4.3}{}}
\newlabel{7@xvr}{{}{7}{Validation Test}{subsection.4.3}{}}
\newlabel{7@vr}{{}{7}{Validation Test}{subsection.4.3}{}}
\@writefile{lof}{\contentsline {figure}{\numberline {8}{\ignorespaces Coefficient of thrust and efficiency curves for validation test.}}{7}{figure.8}}
\newlabel{f:validation}{{8}{7}{Coefficient of thrust and efficiency curves for validation test}{figure.8}{}}
\@writefile{lof}{\contentsline {subfigure}{\numberline{(a)}{\ignorespaces {APC 6x4 coefficient of thrust validation results plotted against known performance\cite {Brezina:13aiaa}.}}}{7}{figure.8}}
\@writefile{lof}{\contentsline {subfigure}{\numberline{(b)}{\ignorespaces {APC 6x4 efficiency validation results plotted against known performance\cite {Brezina:13aiaa}, scaled to account for electrical inefficiency}}}{7}{figure.8}}
\@writefile{toc}{\contentsline {section}{\numberline {5}Data Analysis}{8}{section.5}}
\newlabel{Data Analysis}{{5}{8}{Data Analysis}{section.5}{}}
\newlabel{8@xvr}{{}{8}{Data Analysis}{section.5}{}}
\newlabel{8@vr}{{}{8}{Data Analysis}{section.5}{}}
\@writefile{lof}{\contentsline {figure}{\numberline {9}{\ignorespaces Coefficient of thrust and efficiency curves showing spacing variations produce negligible effects.}}{8}{figure.9}}
\newlabel{f:spacing_no_matter}{{9}{8}{Coefficient of thrust and efficiency curves showing spacing variations produce negligible effects}{figure.9}{}}
\@writefile{lof}{\contentsline {subfigure}{\numberline{(a)}{\ignorespaces {Small protrusion size coefficient of thrust at 8,000 RPM}}}{8}{figure.9}}
\@writefile{lof}{\contentsline {subfigure}{\numberline{(b)}{\ignorespaces {Small protrusion size efficiency at 8,000 RPM}}}{8}{figure.9}}
\@writefile{toc}{\contentsline {subsection}{\numberline {5.1}Efficiency Analysis}{9}{subsection.5.1}}
\newlabel{ Efficiency Analysis}{{5.1}{9}{Efficiency Analysis}{subsection.5.1}{}}
\newlabel{f:efficiencya}{{10(a)}{9}{Subfigure 10(a)}{subfigure.10.1}{}}
\newlabel{sub@f:efficiencya}{{(a)}{9}{Subfigure 10(a)\relax }{subfigure.10.1}{}}
\newlabel{f:efficiencyb}{{10(b)}{9}{Subfigure 10(b)}{subfigure.10.2}{}}
\newlabel{sub@f:efficiencyb}{{(b)}{9}{Subfigure 10(b)\relax }{subfigure.10.2}{}}
\newlabel{f:efficiencyc}{{10(c)}{9}{Subfigure 10(c)}{subfigure.10.3}{}}
\newlabel{sub@f:efficiencyc}{{(c)}{9}{Subfigure 10(c)\relax }{subfigure.10.3}{}}
\@writefile{lof}{\contentsline {figure}{\numberline {10}{\ignorespaces Efficiency analysis for medium spacing.}}{9}{figure.10}}
\newlabel{f:efficiency}{{10}{9}{Efficiency analysis for medium spacing}{figure.10}{}}
\@writefile{lof}{\contentsline {subfigure}{\numberline{(a)}{\ignorespaces { 8,000 RPM medium protrusion spacing efficiency analysis with two data sets per propeller.}}}{9}{figure.10}}
\@writefile{lof}{\contentsline {subfigure}{\numberline{(b)}{\ignorespaces {12,000 RPM medium protrusion spacing efficiency analysis with two data sets per propeller.}}}{9}{figure.10}}
\@writefile{lof}{\contentsline {subfigure}{\numberline{(c)}{\ignorespaces { 14,000 RPM medium protrusion spacing efficiency analysis with two data sets per propeller.}}}{9}{figure.10}}
\@writefile{toc}{\contentsline {subsection}{\numberline {5.2} Thrust Analysis}{10}{subsection.5.2}}
\newlabel{Thrust Analysis}{{5.2}{10}{Thrust Analysis}{subsection.5.2}{}}
\newlabel{f:thrusta}{{11(a)}{10}{Subfigure 11(a)}{subfigure.11.1}{}}
\newlabel{sub@f:thrusta}{{(a)}{10}{Subfigure 11(a)\relax }{subfigure.11.1}{}}
\newlabel{f:thrustb}{{11(b)}{10}{Subfigure 11(b)}{subfigure.11.2}{}}
\newlabel{sub@f:thrustb}{{(b)}{10}{Subfigure 11(b)\relax }{subfigure.11.2}{}}
\newlabel{f:thrustc}{{11(c)}{10}{Subfigure 11(c)}{subfigure.11.3}{}}
\newlabel{sub@f:thrustc}{{(c)}{10}{Subfigure 11(c)\relax }{subfigure.11.3}{}}
\@writefile{lof}{\contentsline {figure}{\numberline {11}{\ignorespaces Coefficient of thrust analysis for medium protrusion spacing.}}{10}{figure.11}}
\newlabel{f:thrust}{{11}{10}{Coefficient of thrust analysis for medium protrusion spacing}{figure.11}{}}
\@writefile{lof}{\contentsline {subfigure}{\numberline{(a)}{\ignorespaces {8,000 RPM medium protrusion spacing coefficient of thrust analysis with two data sets per propeller.}}}{10}{figure.11}}
\@writefile{lof}{\contentsline {subfigure}{\numberline{(b)}{\ignorespaces {12,000 RPM medium protrusion spacing coefficient of thrust analysis with two data sets per propeller.}}}{10}{figure.11}}
\@writefile{lof}{\contentsline {subfigure}{\numberline{(c)}{\ignorespaces {14,000 RPM medium protrusion spacing coefficient of thrust analysis with two data sets per propeller.}}}{10}{figure.11}}
\bibdata{Sources}
\bibcite{fish:11icb}{1}
\bibcite{howle:09ww}{2}
\bibcite{stanway:08mit}{3}
\bibcite{swatton:11pf}{4}
\bibcite{murray:07joa}{5}
\bibcite{hansen:12ua}{6}
\bibcite{fish:06icb}{7}
\bibcite{Lin:91aiaa}{8}
\bibcite{dewar:05pat}{9}
\bibcite{custodio:07}{10}
\bibcite{akram}{11}
\bibcite{feng}{12}
\bibcite{sousa}{13}
\@writefile{toc}{\contentsline {section}{\numberline {6}Conclusions and Future Work}{11}{section.6}}
\newlabel{Conclusions and Future Work}{{6}{11}{Conclusions and Future Work}{section.6}{}}
\bibcite{glauert:1926}{14}
\bibcite{Brezina:13aiaa}{15}
\bibcite{phelps}{16}
\bibstyle{aiaa}
\newlabel{LastPage}{{}{12}{}{page.12}{}}
\xdef\lastpage@lastpage{12}
\xdef\lastpage@lastpageHy{12}
